Web scraping from the TRIP database with rvest
…
Classifying documents

## # A tibble: 12,000 x 3
##    document topic       gamma
##       <chr> <int>       <dbl>
##  1  1420183     1 0.003444685
##  2  5849515     1 0.001676629
##  3  6610452     1 0.001470749
##  4  7619810     1 0.001758691
##  5  7759305     1 0.001470749
##  6  8151108     1 0.983821760
##  7  1419945     1 0.002489895
##  8  1419962     1 0.002489895
##  9  1420334     1 0.002675277
## 10  5021886     1 0.004261814
## # ... with 11,990 more rows
…
